[
  {
    "berryColor": {
      "id": 6,
      "name": "Желтый"
    },
    "plantAndSeedType": {
      "id": 1,
      "name": "Ягода"
    },
    "plantAndSeedSize": {
      "weight": 153,
      "height": 248,
      "width": 69,
      "depth": 177
    },
    "name": "Алыча",
    "vendorCode": "VendorCodea92b4e79-ee10-4f3e-bf67-8c11ea082f46",
    "country": {
      "id": 6,
      "name": "Украина"
    },
    "firm": {
      "name": "4dacha"
    }
  },
  {
    "berryColor": {
      "id": 5,
      "name": "Красный"
    },
    "plantAndSeedType": {
      "id": 1,
      "name": "Ягода"
    },
    "plantAndSeedSize": {
      "weight": 246,
      "height": 10,
      "width": 4,
      "depth": 180
    },
    "name": "Клубника",
    "vendorCode": "VendorCoded33a3bab-3e5f-46c0-98db-eb42bcce6352",
    "country": {
      "id": 1,
      "name": "Россия"
    },
    "firm": {
      "name": "АЭЛИТА"
    }
  }
]