[
  {
    "seedingAmount": 237,
    "plantAndSeedType": {
      "id": 2,
      "name": "Семена"
    },
    "plantAndSeedSize": {
      "weight": 1,
      "height": 120,
      "width": 243,
      "depth": 40
    },
    "name": "Баклажан",
    "vendorCode": "VendorCode86f2a37e-0083-4bee-a34d-73eb2372df1e",
    "country": {
      "id": 1,
      "name": "Россия"
    },
    "firm": {
      "name": "SEMENA"
    }
  },
  {
    "seedingAmount": 64,
    "plantAndSeedType": {
      "id": 2,
      "name": "Семена"
    },
    "plantAndSeedSize": {
      "weight": 156,
      "height": 247,
      "width": 93,
      "depth": 242
    },
    "name": "Огурец Адам F1",
    "vendorCode": "VendorCodef2a6b84c-799d-49aa-9293-366958beba7a",
    "country": {
      "id": 3,
      "name": "Белоруссия"
    },
    "firm": {
      "name": "Русский Огород"
    }
  }
]